%YAML 1.1
%TAG !u! tag:unity3d.com,2011:
--- !u!1001 &206543825286943838
PrefabInstance:
  m_ObjectHideFlags: 0
  serializedVersion: 2
  m_Modification:
    m_TransformParent: {fileID: 0}
    m_Modifications:
    - target: {fileID: -8679921383154817045, guid: 82a3717c3971e894f940d52a4ad6c129, type: 3}
      propertyPath: m_RootOrder
      value: 0
      objectReference: {fileID: 0}
    - target: {fileID: -8679921383154817045, guid: 82a3717c3971e894f940d52a4ad6c129, type: 3}
      propertyPath: m_LocalPosition.x
      value: 43.25119
      objectReference: {fileID: 0}
    - target: {fileID: -8679921383154817045, guid: 82a3717c3971e894f940d52a4ad6c129, type: 3}
      propertyPath: m_LocalPosition.y
      value: 0.5
      objectReference: {fileID: 0}
    - target: {fileID: -8679921383154817045, guid: 82a3717c3971e894f940d52a4ad6c129, type: 3}
      propertyPath: m_LocalPosition.z
      value: -58.40241
      objectReference: {fileID: 0}
    - target: {fileID: -8679921383154817045, guid: 82a3717c3971e894f940d52a4ad6c129, type: 3}
      propertyPath: m_LocalRotation.w
      value: 1
      objectReference: {fileID: 0}
    - target: {fileID: -8679921383154817045, guid: 82a3717c3971e894f940d52a4ad6c129, type: 3}
      propertyPath: m_LocalRotation.x
      value: 0
      objectReference: {fileID: 0}
    - target: {fileID: -8679921383154817045, guid: 82a3717c3971e894f940d52a4ad6c129, type: 3}
      propertyPath: m_LocalRotation.y
      value: 0
      objectReference: {fileID: 0}
    - target: {fileID: -8679921383154817045, guid: 82a3717c3971e894f940d52a4ad6c129, type: 3}
      propertyPath: m_LocalRotation.z
      value: 0
      objectReference: {fileID: 0}
    - target: {fileID: -8679921383154817045, guid: 82a3717c3971e894f940d52a4ad6c129, type: 3}
      propertyPath: m_LocalEulerAnglesHint.x
      value: 0
      objectReference: {fileID: 0}
    - target: {fileID: -8679921383154817045, guid: 82a3717c3971e894f940d52a4ad6c129, type: 3}
      propertyPath: m_LocalEulerAnglesHint.y
      value: 0
      objectReference: {fileID: 0}
    - target: {fileID: -8679921383154817045, guid: 82a3717c3971e894f940d52a4ad6c129, type: 3}
      propertyPath: m_LocalEulerAnglesHint.z
      value: 0
      objectReference: {fileID: 0}
    - target: {fileID: 919132149155446097, guid: 82a3717c3971e894f940d52a4ad6c129, type: 3}
      propertyPath: m_Name
      value: Man_2
      objectReference: {fileID: 0}
    m_RemovedComponents: []
  m_SourcePrefab: {fileID: 100100000, guid: 82a3717c3971e894f940d52a4ad6c129, type: 3}
--- !u!4 &384903830983816117 stripped
Transform:
  m_CorrespondingSourceObject: {fileID: -8679921383154817045, guid: 82a3717c3971e894f940d52a4ad6c129, type: 3}
  m_PrefabInstance: {fileID: 206543825286943838}
  m_PrefabAsset: {fileID: 0}
--- !u!1 &1016867189212997903 stripped
GameObject:
  m_CorrespondingSourceObject: {fileID: 919132149155446097, guid: 82a3717c3971e894f940d52a4ad6c129, type: 3}
  m_PrefabInstance: {fileID: 206543825286943838}
  m_PrefabAsset: {fileID: 0}
--- !u!95 &7643264085295208584
Animator:
  serializedVersion: 5
  m_ObjectHideFlags: 0
  m_CorrespondingSourceObject: {fileID: 0}
  m_PrefabInstance: {fileID: 0}
  m_PrefabAsset: {fileID: 0}
  m_GameObject: {fileID: 1016867189212997903}
  m_Enabled: 1
  m_Avatar: {fileID: 0}
  m_Controller: {fileID: 9100000, guid: 39a4066394b063c4f9290f716e048026, type: 2}
  m_CullingMode: 0
  m_UpdateMode: 0
  m_ApplyRootMotion: 0
  m_LinearVelocityBlending: 0
  m_StabilizeFeet: 0
  m_WarningMessage: 
  m_HasTransformHierarchy: 1
  m_AllowConstantClipSamplingOptimization: 1
  m_KeepAnimatorStateOnDisable: 0
--- !u!195 &7528201251863334847
NavMeshAgent:
  m_ObjectHideFlags: 0
  m_CorrespondingSourceObject: {fileID: 0}
  m_PrefabInstance: {fileID: 0}
  m_PrefabAsset: {fileID: 0}
  m_GameObject: {fileID: 1016867189212997903}
  m_Enabled: 1
  m_AgentTypeID: 0
  m_Radius: 0.5
  m_Speed: 2
  m_Acceleration: 8
  avoidancePriority: 50
  m_AngularSpeed: 120
  m_StoppingDistance: 0
  m_AutoTraverseOffMeshLink: 1
  m_AutoBraking: 1
  m_AutoRepath: 1
  m_Height: 2
  m_BaseOffset: 0
  m_WalkableMask: 4294967295
  m_ObstacleAvoidanceType: 4
--- !u!114 &3054251854047567383
MonoBehaviour:
  m_ObjectHideFlags: 0
  m_CorrespondingSourceObject: {fileID: 0}
  m_PrefabInstance: {fileID: 0}
  m_PrefabAsset: {fileID: 0}
  m_GameObject: {fileID: 1016867189212997903}
  m_Enabled: 1
  m_EditorHideFlags: 0
  m_Script: {fileID: 11500000, guid: 8134551e62c5426ea6d88247441369dc, type: 3}
  m_Name: 
  m_EditorClassIdentifier: 
  _bot:
    _navMeshAgent: {fileID: 7528201251863334847}
    _transform: {fileID: 384903830983816117}
    _points: []
    _standAtPointTime: 0
    _stoppingDistanceThreshold: 1
    _targetDetectDistance: 0
    _targetDetectAngle: 0
    _targetFindSpeed: 0
    _observeTargetProgress: 0
