%YAML 1.1
%TAG !u! tag:unity3d.com,2011:
--- !u!21 &2100000
Material:
  serializedVersion: 6
  m_ObjectHideFlags: 0
  m_CorrespondingSourceObject: {fileID: 0}
  m_PrefabInstance: {fileID: 0}
  m_PrefabAsset: {fileID: 0}
  m_Name: ShaderVolumeCloudsSMV3.4 3 SM30 like SM20 H 1 BACK8 use VOLUME
  m_Shader: {fileID: 4800000, guid: d46699f963e3e1a4fa975c3d0c795c75, type: 3}
  m_ShaderKeywords: CV_DEPTHBLEND_OFF CV_HORIZONBLEND_OFF CV_LIGHTING_ON
  m_LightmapFlags: 1
  m_EnableInstancingVariants: 0
  m_DoubleSidedGI: 0
  m_CustomRenderQueue: -1
  stringTagMap: {}
  disabledShaderPasses: []
  m_SavedProperties:
    serializedVersion: 3
    m_TexEnvs:
    - _Bump:
        m_Texture: {fileID: 2800000, guid: 5a1bedf7284966f4e827a213e4c46e5a, type: 3}
        m_Scale: {x: 1, y: 1}
        m_Offset: {x: 0, y: 0}
    - _CloudMap:
        m_Texture: {fileID: 2800000, guid: 1c8481fcc3152ea4d8315a8bc2a0da51, type: 3}
        m_Scale: {x: 1, y: 1}
        m_Offset: {x: 0, y: 0}
    - _CloudMap1:
        m_Texture: {fileID: 2800000, guid: 2f72804083408ae41b57b46b545b3aca, type: 3}
        m_Scale: {x: 1, y: 1}
        m_Offset: {x: 0, y: 0}
    - _Jitter:
        m_Texture: {fileID: 0}
        m_Scale: {x: 1, y: 1}
        m_Offset: {x: 0, y: 0}
    - _MainTex:
        m_Texture: {fileID: 2800000, guid: 55f5c739e5711f841b02183ae8d0298c, type: 3}
        m_Scale: {x: 1, y: 1}
        m_Offset: {x: 0, y: 0}
    - _PaintMap:
        m_Texture: {fileID: 2800000, guid: 6c93f72df53d12245bc2ab09ce1de36f, type: 3}
        m_Scale: {x: 1, y: 1}
        m_Offset: {x: 0, y: 0}
    - _PerlinNormalMap:
        m_Texture: {fileID: 2800000, guid: 5ab1f4d515f82fe46b685c62a42c4729, type: 3}
        m_Scale: {x: 1, y: 1}
        m_Offset: {x: 0, y: 0}
    - _PerlinNormalMap1:
        m_Texture: {fileID: 2800000, guid: d365d36f30dee7f4f8e7990e30da8e75, type: 3}
        m_Scale: {x: 0.31, y: 0.15}
        m_Offset: {x: 0, y: 0}
    m_Floats:
    - Thickness: 0.98
    - _Alpha: 0.42
    - _AlphaCut: -5.56
    - _AmbientFactor: 1
    - _CloudCover: 0.5
    - _CloudDensity: 1
    - _CloudSharpness: 0.8
    - _CloudSize: 1
    - _ColorDiff: -0.61
    - _ColorDiffOffset: 0.02
    - _Coverage: -0.06926409
    - _CoverageOffset: 0.08
    - _CullMode: 2
    - _CutHeight: 191.46
    - _CutHeight2: 11111
    - _Cutoff: 0.038
    - _Density: 0.00024230996
    - _DepthBlendMul: 2.29
    - _DepthBlendMult: 2
    - _DepthColor: 0
    - _DepthIntensity: 0.1
    - _DetailL: 0
    - _Dithering: 1280
    - _EdgeBlend: 0.11
    - _EdgeFactor: 0.51
    - _FogFactor: -2.9
    - _FogUnity: 1
    - _Forward: 0
    - _HorizonFactor: 0.17530017
    - _IndirectContribution: 1
    - _MipLevel: 0
    - _Mode: 0
    - _Normalized: 1.086
    - _ObjectSpaceMapping: 0
    - _Speed: 23
    - _SpeedSecondLayer: 23.88
    - _Tiling: 4651.16
    - _TimeMult: 0.1
    - _TimeMultSecondLayer: 4
    - _TranspOffset: 0
    - _Transparency: 0.51
    - _TransparencyThres: -1.69
    - _Velocity1: 22
    - _Velocity2: 6
    - _ditherTiling: 1
    - _shadowAlpha: 0.75
    - _shadowSharpness: 1
    - pointLightPower: 0
    m_Colors:
    - _Ambient: {r: 0, g: 0, b: 0, a: 0}
    - _BaseColor: {r: 0.11784035, g: 0.11784035, b: 0.11784035, a: 0.8585514}
    - _CloudNormalsDirection: {r: 1, g: -1, b: 1, a: 0}
    - _CloudSpeed: {r: 0.001, g: 0, b: 0, a: 0}
    - _Color: {r: 0.043136243, g: 0.043136243, b: 0.043136243, a: 1}
    - _Control: {r: 0.30882353, g: 0.24376704, b: 0.21345155, a: 1}
    - _EdgeFactors: {r: 0, g: 0.52, b: -1, a: 0}
    - _FogColor: {r: 0.76862746, g: 0.85882354, b: 0.91764706, a: 1}
    - _LightingControl: {r: 1, g: 1, b: -1, a: 0}
    - _Shading: {r: 0.27681658, g: 0.29418916, b: 0.4705882, a: 0.172}
    - _ShadowColor: {r: 0.23921387, g: 0.23921387, b: 0.31764522, a: 0.27450982}
    - _SunColor: {r: 0.9019608, g: 0.9019608, b: 0.9019608, a: 0.04216953}
    - _SunDir: {r: 0, g: 1, b: 0, a: 0}
    - _Velocity1: {r: -1.4931542, g: 1.5432254, b: 0, a: 0.01697183}
    - _Velocity2: {r: -4.7911243, g: 4.645881, b: 0, a: 2}
    - _WindDirection: {r: 1, g: 0, b: 0, a: 0}
    - pointLightColor: {r: 0, g: 0, b: 0, a: 0}
    - pointLightPos: {r: 0, g: 0, b: 0, a: 0}
