%YAML 1.1
%TAG !u! tag:unity3d.com,2011:
--- !u!114 &-6286156873003259159
MonoBehaviour:
  m_ObjectHideFlags: 3
  m_CorrespondingSourceObject: {fileID: 0}
  m_PrefabInstance: {fileID: 0}
  m_PrefabAsset: {fileID: 0}
  m_GameObject: {fileID: 0}
  m_Enabled: 1
  m_EditorHideFlags: 0
  m_Script: {fileID: 11500000, guid: 9008a067f4d626c4d8bc4bc48f04bb89, type: 3}
  m_Name: AmbientOcclusion
  m_EditorClassIdentifier: 
  active: 1
  quality:
    m_OverrideState: 0
    m_Value: 1
  rayTracing:
    m_OverrideState: 0
    m_Value: 0
  intensity:
    m_OverrideState: 1
    m_Value: 0.5
  directLightingStrength:
    m_OverrideState: 0
    m_Value: 0
  radius:
    m_OverrideState: 0
    m_Value: 2
  spatialBilateralAggressiveness:
    m_OverrideState: 0
    m_Value: 0.15
  temporalAccumulation:
    m_OverrideState: 0
    m_Value: 1
  ghostingReduction:
    m_OverrideState: 0
    m_Value: 0.5
  blurSharpness:
    m_OverrideState: 0
    m_Value: 0.1
  layerMask:
    m_OverrideState: 0
    m_Value:
      serializedVersion: 2
      m_Bits: 4294967295
  occluderMotionRejection:
    m_OverrideState: 0
    m_Value: 1
  receiverMotionRejection:
    m_OverrideState: 0
    m_Value: 1
  m_StepCount:
    m_OverrideState: 0
    m_Value: 6
  m_FullResolution:
    m_OverrideState: 0
    m_Value: 0
  m_MaximumRadiusInPixels:
    m_OverrideState: 0
    m_Value: 40
  m_BilateralUpsample:
    m_OverrideState: 0
    m_Value: 1
  m_DirectionCount:
    m_OverrideState: 0
    m_Value: 2
  m_RayLength:
    m_OverrideState: 0
    m_Value: 3
  m_SampleCount:
    m_OverrideState: 0
    m_Value: 2
  m_Denoise:
    m_OverrideState: 0
    m_Value: 1
  m_DenoiserRadius:
    m_OverrideState: 0
    m_Value: 0.5
--- !u!114 &-3352347674914365972
MonoBehaviour:
  m_ObjectHideFlags: 3
  m_CorrespondingSourceObject: {fileID: 0}
  m_PrefabInstance: {fileID: 0}
  m_PrefabAsset: {fileID: 0}
  m_GameObject: {fileID: 0}
  m_Enabled: 1
  m_EditorHideFlags: 0
  m_Script: {fileID: 11500000, guid: 29b00527f85bb3346a4d2cb710971587, type: 3}
  m_Name: VolumetricFog
  m_EditorClassIdentifier: 
  active: 0
  colorMode:
    m_OverrideState: 1
    m_Value: 1
  color:
    m_OverrideState: 1
    m_Value: {r: 0.5, g: 0.5, b: 0.5, a: 1}
  tint:
    m_OverrideState: 1
    m_Value: {r: 1, g: 1, b: 1, a: 1}
  density:
    m_OverrideState: 1
    m_Value: 1
  maxFogDistance:
    m_OverrideState: 1
    m_Value: 11111
  mipFogMaxMip:
    m_OverrideState: 1
    m_Value: 0.29
  mipFogNear:
    m_OverrideState: 1
    m_Value: 0
  mipFogFar:
    m_OverrideState: 1
    m_Value: 1000
  albedo:
    m_OverrideState: 1
    m_Value: {r: 1, g: 1, b: 1, a: 1}
  meanFreePath:
    m_OverrideState: 1
    m_Value: 150
  baseHeight:
    m_OverrideState: 1
    m_Value: 111111110
  maximumHeight:
    m_OverrideState: 1
    m_Value: 11111111
  anisotropy:
    m_OverrideState: 1
    m_Value: 0.19
  globalLightProbeDimmer:
    m_OverrideState: 1
    m_Value: 0.802
  enableDistantFog:
    m_OverrideState: 1
    m_Value: 1
--- !u!114 &-2031798163339493710
MonoBehaviour:
  m_ObjectHideFlags: 3
  m_CorrespondingSourceObject: {fileID: 0}
  m_PrefabInstance: {fileID: 0}
  m_PrefabAsset: {fileID: 0}
  m_GameObject: {fileID: 0}
  m_Enabled: 1
  m_EditorHideFlags: 0
  m_Script: {fileID: 11500000, guid: 953beb541740ddc499d005ee80c9ff29, type: 3}
  m_Name: Fog
  m_EditorClassIdentifier: 
  active: 1
  quality:
    m_OverrideState: 0
    m_Value: 1
  enabled:
    m_OverrideState: 1
    m_Value: 1
  colorMode:
    m_OverrideState: 1
    m_Value: 1
  color:
    m_OverrideState: 1
    m_Value: {r: 0.5, g: 0.5, b: 0.5, a: 1}
  tint:
    m_OverrideState: 1
    m_Value: {r: 0.8679245, g: 0.749199, b: 0.749199, a: 1}
  maxFogDistance:
    m_OverrideState: 1
    m_Value: 111111
  mipFogMaxMip:
    m_OverrideState: 1
    m_Value: 0.5
  mipFogNear:
    m_OverrideState: 1
    m_Value: 0
  mipFogFar:
    m_OverrideState: 1
    m_Value: 1000
  baseHeight:
    m_OverrideState: 1
    m_Value: 1111
  maximumHeight:
    m_OverrideState: 1
    m_Value: 1111
  meanFreePath:
    m_OverrideState: 1
    m_Value: 11111
  enableVolumetricFog:
    m_OverrideState: 1
    m_Value: 0
  albedo:
    m_OverrideState: 1
    m_Value: {r: 1, g: 1, b: 1, a: 1}
  globalLightProbeDimmer:
    m_OverrideState: 1
    m_Value: 1
  depthExtent:
    m_OverrideState: 1
    m_Value: 64
  denoisingMode:
    m_OverrideState: 0
    m_Value: 2
  anisotropy:
    m_OverrideState: 1
    m_Value: 0.85
  sliceDistributionUniformity:
    m_OverrideState: 1
    m_Value: 0.75
  m_FogControlMode:
    m_OverrideState: 0
    m_Value: 0
  screenResolutionPercentage:
    m_OverrideState: 0
    m_Value: 12.5
  volumeSliceCount:
    m_OverrideState: 0
    m_Value: 64
  m_VolumetricFogBudget:
    m_OverrideState: 0
    m_Value: 0.33
  m_ResolutionDepthRatio:
    m_OverrideState: 0
    m_Value: 0.666
  directionalLightsOnly:
    m_OverrideState: 0
    m_Value: 0
--- !u!114 &11400000
MonoBehaviour:
  m_ObjectHideFlags: 0
  m_CorrespondingSourceObject: {fileID: 0}
  m_PrefabInstance: {fileID: 0}
  m_PrefabAsset: {fileID: 0}
  m_GameObject: {fileID: 0}
  m_Enabled: 1
  m_EditorHideFlags: 0
  m_Script: {fileID: 11500000, guid: d7fd9488000d3734a9e00ee676215985, type: 3}
  m_Name: SampleSceneRenderingSettings 5 AREA CLOUDS
  m_EditorClassIdentifier: 
  components:
  - {fileID: 114527594671542966}
  - {fileID: 114339849572665496}
  - {fileID: 5758136461106579282}
  - {fileID: -6286156873003259159}
  - {fileID: -3352347674914365972}
  - {fileID: -2031798163339493710}
--- !u!114 &114339849572665496
MonoBehaviour:
  m_ObjectHideFlags: 0
  m_CorrespondingSourceObject: {fileID: 0}
  m_PrefabInstance: {fileID: 0}
  m_PrefabAsset: {fileID: 0}
  m_GameObject: {fileID: 0}
  m_Enabled: 1
  m_EditorHideFlags: 0
  m_Script: {fileID: 11500000, guid: 0d7593b3a9277ac4696b20006c21dde2, type: 3}
  m_Name: 
  m_EditorClassIdentifier: 
  active: 1
  skyType:
    m_OverrideState: 1
    m_Value: 2
  cloudType:
    m_OverrideState: 0
    m_Value: 0
  skyAmbientMode:
    m_OverrideState: 1
    m_Value: 0
  windOrientation:
    m_OverrideState: 0
    m_Value: 0
  windSpeed:
    m_OverrideState: 0
    m_Value: 100
  fogType:
    m_OverrideState: 1
    m_Value: 3
--- !u!114 &114527594671542966
MonoBehaviour:
  m_ObjectHideFlags: 0
  m_CorrespondingSourceObject: {fileID: 0}
  m_PrefabInstance: {fileID: 0}
  m_PrefabAsset: {fileID: 0}
  m_GameObject: {fileID: 0}
  m_Enabled: 1
  m_EditorHideFlags: 0
  m_Script: {fileID: 11500000, guid: 7ddcec8a8eb2d684d833ac8f5d26aebd, type: 3}
  m_Name: 
  m_EditorClassIdentifier: 
  active: 1
  maxShadowDistance:
    m_OverrideState: 1
    m_Value: 32622.44
  directionalTransmissionMultiplier:
    m_OverrideState: 1
    m_Value: 1
  cascadeShadowSplitCount:
    m_OverrideState: 1
    m_Value: 4
  cascadeShadowSplit0:
    m_OverrideState: 1
    m_Value: 0.005
  cascadeShadowSplit1:
    m_OverrideState: 1
    m_Value: 0.17652173
  cascadeShadowSplit2:
    m_OverrideState: 1
    m_Value: 0.31304348
  cascadeShadowBorder0:
    m_OverrideState: 1
    m_Value: 0
  cascadeShadowBorder1:
    m_OverrideState: 1
    m_Value: 0
  cascadeShadowBorder2:
    m_OverrideState: 1
    m_Value: 0
  cascadeShadowBorder3:
    m_OverrideState: 1
    m_Value: 0
--- !u!114 &5758136461106579282
MonoBehaviour:
  m_ObjectHideFlags: 3
  m_CorrespondingSourceObject: {fileID: 0}
  m_PrefabInstance: {fileID: 0}
  m_PrefabAsset: {fileID: 0}
  m_GameObject: {fileID: 0}
  m_Enabled: 1
  m_EditorHideFlags: 0
  m_Script: {fileID: 11500000, guid: 3df29e7cc05fbec4aa43e06ea875565d, type: 3}
  m_Name: ProceduralSky
  m_EditorClassIdentifier: 
  active: 1
  rotation:
    m_OverrideState: 0
    m_Value: 0
  skyIntensityMode:
    m_OverrideState: 1
    m_Value: 0
  exposure:
    m_OverrideState: 1
    m_Value: 2.2
  multiplier:
    m_OverrideState: 0
    m_Value: 1
  upperHemisphereLuxValue:
    m_OverrideState: 0
    m_Value: 1
  upperHemisphereLuxColor:
    m_OverrideState: 0
    m_Value: {x: 0, y: 0, z: 0}
  desiredLuxValue:
    m_OverrideState: 0
    m_Value: 20000
  updateMode:
    m_OverrideState: 0
    m_Value: 0
  updatePeriod:
    m_OverrideState: 0
    m_Value: 0
  includeSunInBaking:
    m_OverrideState: 0
    m_Value: 0
  sunSize:
    m_OverrideState: 1
    m_Value: 0.09
  sunSizeConvergence:
    m_OverrideState: 0
    m_Value: 5
  atmosphereThickness:
    m_OverrideState: 0
    m_Value: 1
  skyTint:
    m_OverrideState: 0
    m_Value: {r: 0.5, g: 0.5, b: 0.5, a: 1}
  groundColor:
    m_OverrideState: 0
    m_Value: {r: 0.369, g: 0.349, b: 0.341, a: 1}
  enableSunDisk:
    m_OverrideState: 1
    m_Value: 1
